hole_id;level_;from_;to_;oc;accu;grade
SPJA_0030_1;300;52.3;53.6;1.3;10513.3;808.719
TMRI_0008_2;300;51;57.5;6.5;62522.9;961.891
TMRI_0009_1;300;61.3;65.4;4.1;126452;3084.2
TMRI_0075_1;300;62.2;64.7;2.5;14929.9;597.198
TMRI_0077_1;300;50.6;53.3;2.7;10388.3;384.751
TMRI_0077_1;300;44.3;45.6;1.3;6693.43;514.879
TMRI_0077_1;300;41.2;42.2;1;5888.49;588.849
TMRI_0084_2;300;44.4;49.7;5.3;178262;3363.44
TMRI_0085_1;300;54.2;58.6;4.4;44036;1000.82
TMRI_0085_1;300;47.5;51.6;4.1;63031.4;1537.35
TMRI_0086_1;300;49.8;55.6;5.8;109994;1896.45
TMRI_0087_2;300;58.3;64.2;5.9;106389;1803.2
TMRI_0088_1;300;63.6;64.6;1;3315.09;331.509
TMRI_0089_1;300;56.1;57.9;1.8;13179.4;732.191
TMRI_0089_1;300;52.6;53.6;1;7201.61;720.161
TMRI_0090_1;300;61.7;63.1;1.4;24592.3;1756.59
TMRI_0099_1;300;79.9;80.9;1;10144.5;1014.45
TMRI_0155_1;300;60.3;63.6;3.3;42945.6;1301.38
TMRI_0155_1;300;58.3;59.3;1;20987.2;2098.72
TMRI_0683_1;300;54.9;56;1.1;3412.38;310.216
TMRI_0683_1;300;51.5;52.5;1;7768.21;776.821
TMRI_0683_1;300;46.1;50.5;4.4;29979;681.341
TMRI_0686_1;300;50.3;51.3;1;5460.88;546.088
TMRI_0687_1;300;52.7;54.4;1.7;12154.3;714.959
TMRI_0687_1;300;50.7;51.7;1;12964.5;1296.45
TMRI_0688_1;300;73.7;74.7;1;6050.11;605.011
TMRI_0688_1;300;57.8;62.6;4.8;34799.3;724.985
TMRI_0688_1;300;55.1;56.6;1.5;8128.61;541.907
TMRI_0688_1;300;53.1;54.1;1;3418.68;341.868
TMRI_0689_1;300;60;64.7;4.7;173466;3690.76
TMRI_0689_1;300;48.8;49.8;1;11507.4;1150.74
TMRI_0693_2;300;53;59;6;87981.3;1466.35
TMRI_0693_2;300;50.1;51.2;1.1;19271.8;1751.98
TMRI_0695_1;300;66.2;67.5;1.3;46165.3;3551.18
TMRI_0696_1;300;64.5;67.3;2.8;258410;9228.92
TMRI_0697_1;300;60.3;61.3;1;8391.65;839.165
TMRI_0697_1;300;56.6;57.7;1.1;5977.71;543.428
TMRI_0697_1;300;49.3;50.3;1;3961.24;396.124
TMRI_0698_1;300;52.2;58.1;5.9;61238.4;1037.94
TMRI_0698_1;300;50.2;51.2;1;3788.3;378.83
TMRI_0699_1;300;57;59.7;2.7;19990.8;740.399
TMRI_0699_1;300;55;56;1;5715.26;571.526
TMRI_0700_1;300;57.4;62.5;5.1;70113.8;1374.78
TMRI_0700_1;300;54.4;56.4;2;63285.1;3164.26
TMRI_0700_1;300;46.5;47.5;1;3601.33;360.133
TMRI_0701_1;300;61.2;62.8;1.6;9007.63;562.977
TMRI_0701_1;300;55;59.5;4.5;31610.8;702.463
TMRI_0701_1;300;49.1;50.1;1;17790.5;1779.05
TMRI_0702_1;300;50.9;51.9;1;10571.6;1057.16
TMRI_0702_1;300;47.9;48.9;1;8479.93;847.993
TMRI_0704_1;300;52.8;56.2;3.4;375305;11038.4
TMRI_0705_2;300;63.1;66.6;3.5;75394.8;2154.14
TMRI_0707_1;300;56.8;58.3;1.5;10464;697.602
TMRI_0707_1;300;52.3;55.8;3.5;47277.8;1350.8
TMRI_0708_2;300;55.6;61.1;5.5;58384.4;1061.53
TMRI_0709_1;300;67;68;1;8266.85;826.685
TMRI_0710_1;300;53.1;57.6;4.5;88824.3;1973.87
TMRI_0712_1;300;51.4;52.5;1.1;4621.26;420.115
TMRI_0712_1;300;48.5;49.5;1;5409.12;540.912
TMRI_0712_1;300;40;41.8;1.8;8094.2;449.678
TMRI_0713_1;300;51.6;52.6;1;4720.33;472.033
TMRI_0715_1;300;54.2;60.6;6.4;40612.5;634.57
TMRI_0715_1;300;50.4;52.4;2;18727.3;936.367
TMRI_0716_2;300;50.6;60.9;10.3;141539;1374.16
TMRI_0717_1;300;54.1;57.6;3.5;62646.7;1789.91
TMRI_0717_1;300;51.3;52.9;1.6;6445.88;402.867
TMRI_0718_1;300;55.6;59.2;3.6;16735.5;464.876
TMRI_0718_1;300;46.3;54.5;8.2;166156;2026.3
TMRI_0719_1;300;56;57.7;1.7;5869.84;345.285
TMRI_0719_1;300;52.6;54.2;1.6;7423.16;463.948
TMRI_0719_1;300;47.2;48.5;1.3;12817;985.925
TMRI_0719_1;300;45.2;46.2;1;7606.52;760.652
TMRI_0719_1;300;42.4;43.4;1;23318.4;2331.84
TMRI_0720_1;300;45.1;46.1;1;4569.35;456.935
TMRI_0722_1;300;54.5;55.5;1;3572.92;357.292
TMRI_0722_1;300;48;49.4;1.4;5855.34;418.239
TMRI_0722_1;300;40.7;45.9;5.2;182463;3508.91
TMRI_0723_1;300;47.8;49;1.2;3666.29;305.524
TMRI_0723_1;300;45.4;46.8;1.4;11751.6;839.403
TMRI_0724_1;300;54.9;55.9;1;7245.54;724.554
TMRI_0725_1;300;56.6;57.7;1.1;4310.51;391.865
TMRI_0725_1;300;53.4;55.3;1.9;11648.2;613.064
TMRI_0726_1;300;58;63.3;5.3;250902;4734.01
TMRI_0726_1;300;53.6;54.6;1;3377.16;337.716
TMRI_0726_1;300;51.4;52.4;1;3211.5;321.15
TMRI_0727_1;300;58.2;64.2;6;245036;4083.93
TMRI_0728_1;300;48.8;51.1;2.3;47339;2058.22
TMRI_0729_1;300;54.8;56.8;2;6496.96;324.848
TMRI_0729_1;300;49.1;53.4;4.3;185858;4322.29
TMRI_0731_1;300;59.2;63.9;4.7;178508;3798.04
TMRI_0731_1;300;55.8;56.8;1;5765.56;576.556
TMRI_0732_1;300;59.8;60.8;1;3827.11;382.711
TMRI_0732_1;300;47.6;48.6;1;3438.48;343.848
TMRI_0733_1;300;57.3;61.8;4.5;60556.1;1345.69
TMRI_0734_2;300;56.5;63.7;7.2;348846;4845.08
TMRI_0734_2;300;49;50;1;3392.41;339.241
TMRI_0735_1;300;50.9;56.2;5.3;35593.6;671.577
TMRI_0736_1;300;51.2;53;1.8;20400.9;1133.39
TMRI_0736_1;300;49.2;50.2;1;3571.04;357.104
TMRI_0736_1;300;47.1;48.2;1.1;7902.35;718.395
TMRI_0736_1;300;39.9;40.9;1;6990.98;699.098
TMRI_0737_1;300;66.1;67.5;1.4;57088.8;4077.77
TMRI_0738_1;300;55.8;60.6;4.8;145035;3021.55
TMRI_0739_1;300;65;66.4;1.4;7507.37;536.241
TMRI_0740_1;300;55.8;59.6;3.8;62561.8;1646.36
TMRI_0741_1;300;63;64.1;1.1;11291.6;1026.51
TMRI_0741_1;300;60.5;62;1.5;9284.01;618.934
TMRI_0742_1;300;52.7;53.7;1;5725.33;572.533
TMRI_0743_1;300;61.6;63;1.4;6258.51;447.036
TMRI_0743_1;300;55;58.2;3.2;66840;2088.75
TMRI_0744_1;300;56.5;57.5;1;13760.7;1376.07
TMRI_0744_1;300;53.5;54.6;1.1;7755.53;705.048
TMRI_0745_1;300;63;64.3;1.3;19644;1511.08
TMRI_0746_1;300;64.2;67.3;3.1;153861;4963.27
TMRI_0746_1;300;58.9;59.9;1;26200.5;2620.05
TMRI_0747_1;300;52.9;58.9;6;146284;2438.07
TMRI_0747_1;300;44.8;45.8;1;6729.52;672.952
TMRI_0748_1;300;63.7;67.7;4;107288;2682.2
TMRI_0749_1;300;62.2;64;1.8;37079.8;2059.99
TMRI_0749_1;300;54;60.7;6.7;160703;2398.55
TMRI_0750_1;300;62;65.7;3.7;197166;5328.8
TMRI_0750_1;300;57;58;1;37638.4;3763.84
TMRI_0751_1;300;62.2;63.5;1.3;10401.1;800.087
TMRI_0751_1;300;56.5;60.2;3.7;48781.4;1318.42
TMRI_0751_1;300;47.2;48.2;1;3096.88;309.688
TMRI_0752_1;300;50.7;58.8;8.1;414858;5121.7
TMRI_0753_1;300;56.3;58.7;2.4;21360.4;890.017
TMRI_0754_1;300;56;62.6;6.6;243321;3686.68
TMRI_0755_1;300;56.7;61.9;5.2;170794;3284.5
TMRI_0755_1;300;47;48;1;4232.49;423.249
TMRI_0757_2;300;55.3;59.3;4;448100;11202.5
TMRI_0757_2;300;51.7;52.7;1;9185.72;918.572
TMRI_0758_1;300;61.2;62.7;1.5;8085.26;539.017
TMRI_0758_1;300;55;60;5;181618;3632.37
TMRI_0758_1;300;52;53;1;6253.98;625.398
TMRI_0759_1;300;58.9;63.2;4.3;39852.2;926.796
TMRI_0760_1;300;60.5;63.4;2.9;43759.9;1508.96
TMRI_0761_1;300;61.4;65.9;4.5;192544;4278.77
TMRI_0762_1;300;59.5;64.2;4.7;61846.3;1315.88
TMRI_0762_1;300;53.9;54.9;1;39297;3929.7
TMRI_0762_1;300;49.1;50.1;1;9152.02;915.202
TMRI_0763_1;300;60.8;64.7;3.9;74375.2;1907.06
TMRI_0763_1;300;57.2;58.2;1;3721.35;372.135
TMRI_0764_1;300;52.5;55.3;2.8;74945.1;2676.61
TMRI_0765_1;300;55;56;1;46583.4;4658.34
TMRI_0766_1;300;54.9;56;1.1;12119.3;1101.75
TMRI_0767_1;300;61.5;62.5;1;5547.03;554.703
TMRI_0767_1;300;51.3;59;7.7;152340;1978.44
TMRI_0768_1;300;50.7;57.1;6.4;235529;3680.15
TMRI_0769_1;300;55.2;58.9;3.7;92593.7;2502.53
TMRI_0769_1;300;53.2;54.2;1;3390.72;339.072
TMRI_0769_1;300;49.1;52.2;3.1;26458.2;853.492
TMRI_0770_2;300;54;60;6;117209;1953.49
TMRI_0770_2;300;50.4;52.3;1.9;18486.4;972.969
TMRI_0771_1;300;51.5;58.3;6.8;73638.1;1082.91
TMRI_0771_1;300;48.5;49.5;1;7827;782.7
TMRI_0772_1;300;49.5;58.5;9;88513.3;983.481
TMRI_0773_1;300;59.5;61.4;1.9;17080.3;898.961
TMRI_0773_1;300;51.4;52.5;1.1;9450.03;859.094
TMRI_0774_1;300;51.5;52.5;1;3096.11;309.611
TMRI_0774_1;300;48.8;50.2;1.4;15004.9;1071.78
TMRI_0775_1;300;48.2;51.1;2.9;23072.9;795.616
TMRI_0776_1;300;55;56.2;1.2;4209.96;350.83
TMRI_0776_1;300;50.1;53.5;3.4;21928;644.941
TMRI_0776_1;300;47;48;1;6181.2;618.12
TMRI_0776_1;300;45;46;1;7882.67;788.267
TMRI_0777_1;300;52.7;57.5;4.8;75873.3;1580.69
TMRI_0777_1;300;49.4;50.8;1.4;5609.73;400.695
TMRI_0777_1;300;41.7;42.7;1;14435.1;1443.51
TMRI_0778_1;300;63.3;64.3;1;13776.3;1377.63
TMRI_0778_1;300;59.6;62.3;2.7;48631.4;1801.16
TMRI_0778_1;300;54.3;55.3;1;25320.5;2532.05
TMRI_0778_1;300;49.2;50.2;1;12856.6;1285.66
TMRI_0779_1;300;60.3;61.6;1.3;9262.69;712.515
TMRI_0779_1;300;56.4;57.4;1;3459.15;345.915
TMRI_0779_1;300;53.1;55.4;2.3;33398.2;1452.1
TMRI_0779_1;300;50.3;51.3;1;3050.48;305.048
TMRI_0779_1;300;48.2;49.2;1;3035.04;303.504
TMRI_0780_1;300;54.3;55.3;1;4998.28;499.828
TMRI_0780_1;300;51.4;52.5;1.1;11744.1;1067.64
TMRI_0781_1;300;53.6;56.5;2.9;12939.8;446.2
TMRI_0781_1;300;50.3;51.4;1.1;3637.5;330.682
TMRI_0782_1;300;57.2;59.6;2.4;30049.3;1252.05
TMRI_0782_1;300;49.9;54.3;4.4;44116.1;1002.64
TMRI_0783_1;300;50.6;52.1;1.5;8002.56;533.504
TMRI_0784_1;300;53.1;59.5;6.4;214706;3354.78
TMRI_0784_1;300;51.1;52.1;1;3249.94;324.994
TMRI_0785_1;300;54.5;57.2;2.7;14851.2;550.043
TMRI_0785_1;300;49.1;50.5;1.4;12635.2;902.517
TMRI_0785_1;300;46.2;48.1;1.9;7365.2;387.642
TMRI_0786_1;300;69.4;70.4;1;3069.92;306.992
TMRI_0787_1;300;52.1;53.1;1;12532.4;1253.24
TMRI_0787_1;300;46.6;50.8;4.2;147370;3508.8
TMRI_0788_1;300;57;58.1;1.1;15356.3;1396.03
TMRI_0788_1;300;43.3;45.6;2.3;34460;1498.26
TMRI_0789_1;300;56.8;58.1;1.3;10327.1;794.392
TMRI_0789_1;300;52.1;55.8;3.7;55173.7;1491.18
TMRI_0790_1;300;60.9;61.9;1;3043.6;304.36
TMRI_0790_1;300;52.2;59.1;6.9;346349;5019.55
TMRI_0790_1;300;49.7;50.7;1;4974.55;497.455
TMRI_0791_1;300;48;49;1;4320.99;432.099
TMRI_0791_1;300;43.1;44.6;1.5;10753.8;716.917
TMRI_0793_1;300;42.5;50.4;7.9;222623;2818.02
TMRI_0794_1;300;56.2;57.2;1;3042.77;304.277
TMRI_0794_1;300;53.9;55;1.1;8886.59;807.872
TMRI_0794_1;300;49.8;52.9;3.1;275793;8896.54
TMRI_0795_1;300;60.3;61.9;1.6;7424.79;464.049
TMRI_0795_1;300;57.5;58.5;1;4179.69;417.969
TMRI_0795_1;300;51.9;56.5;4.6;42041.9;913.954
TMRI_0796_1;300;65.4;67.5;2.1;23518.6;1119.93
TMRI_0796_1;300;59.6;60.6;1;6221.8;622.18
TMRI_0797_1;300;66.2;67.2;1;8419.69;841.969
TMRI_0797_1;300;46.9;47.9;1;3762.99;376.299
TMRI_0798_1;300;61.3;65.1;3.8;47618.3;1253.11
TMRI_0799_1;300;60.8;61.8;1;5449.56;544.956
TMRI_0799_1;300;57.2;59.5;2.3;13774.1;598.875
TMRI_0800_1;300;55.1;62.4;7.3;304329;4168.89
TMRI_0801_1;300;63;66;3;37857.8;1261.93
TMRI_0802_1;300;58.4;63.9;5.5;390723;7104.05
TMRI_0803_2;300;54;60.7;6.7;258441;3857.32
TMRI_0804_1;300;64.4;67.3;2.9;73657.5;2539.91
TMRI_0806_1;300;55.3;56.4;1.1;16511.1;1501.01
TMRI_0806_1;300;52.9;54.2;1.3;23870.9;1836.22
TMRI_0808_1;300;60.9;62.8;1.9;15357.8;808.306
TMRI_0808_1;300;52;58.6;6.6;132175;2002.65
TMRI_0810_1;300;62.6;64.9;2.3;35097.2;1525.97
TMRI_0810_1;300;54;59.5;5.5;71308.9;1296.53
TMRI_0810_1;300;51.7;52.7;1;3325.17;332.517
TMRI_0811_1;300;60.6;61.6;1;3440.53;344.053
TMRI_0811_1;300;53.2;59.5;6.3;163995;2603.1
TMRI_0811_1;300;44.5;45.5;1;3520.99;352.099
TMRI_0812_1;300;63.6;67.7;4.1;165315;4032.08
TMRI_0813_1;300;63.6;67.1;3.5;63270.5;1807.73
TMRI_0814_1;300;54;57.5;3.5;73156.6;2090.19
TMRI_0815_1;300;63.3;67.3;4;162085;4052.13
TMRI_0816_1;300;64.4;65.4;1;12126.9;1212.69
TMRI_0816_1;300;59.7;63.1;3.4;102776;3022.82
TMRI_0817_1;300;57.9;61.7;3.8;36516.3;960.956
TMRI_0817_1;300;55.8;56.8;1;9242.05;924.205
TMRI_0818_1;300;51.2;52.2;1;4481.72;448.172
TMRI_0819_1;300;52.9;53.9;1;3227.06;322.706
TMRI_0819_1;300;46.5;49.4;2.9;32457.4;1119.22
TMRI_0820_1;300;53.1;54.5;1.4;5981.4;427.243
TMRI_0820_1;300;42.2;51.9;9.7;96730.1;997.217
TMRI_0821_1;300;51.9;53.4;1.5;7367.72;491.181
TMRI_0821_1;300;49.7;50.7;1;4673.8;467.38
TMRI_0822_1;300;53.8;56.5;2.7;10479;388.11
TMRI_0822_1;300;42.6;52.8;10.2;366270;3590.88
TMRI_0823_1;300;49.4;50.4;1;5260.89;526.089
TMRI_0824_1;300;58.4;61.2;2.8;21839.9;779.996
TMRI_0825_1;300;48.1;49.1;1;3817.87;381.787
TMRI_0825_1;300;44.4;47.1;2.7;40803.4;1511.24
TMRI_0825_1;300;40.3;43.4;3.1;220817;7123.13
TMRI_0826_1;300;48.4;51.4;3;16795.4;559.846
TMRI_0826_1;300;46.3;47.4;1.1;3713.97;337.634
TMRI_0827_1;300;51.4;52.4;1;4417.79;441.779
TMRI_0828_1;300;53.6;54.9;1.3;6918.63;532.202
TMRI_0828_1;300;49.7;50.9;1.2;15988.9;1332.41
TMRI_0829_1;300;57;58;1;3441.95;344.195
TMRI_0829_1;300;54.6;55.6;1;3062.9;306.29
TMRI_0829_1;300;47.3;53.1;5.8;142430;2455.69
TMRI_0830_1;300;49.2;52.3;3.1;29055.3;937.269
TMRI_0830_1;300;45.7;48;2.3;31706.9;1378.56
TMRI_0830_1;300;42;44.7;2.7;123347;4568.39
TMRI_0831_1;300;48.7;50.1;1.4;10264.4;733.17
TMRI_0832_1;300;56.1;57.2;1.1;3813.08;346.644
TMRI_0832_1;300;53.6;54.7;1.1;6416.71;583.337
TMRI_0833_1;300;44;45;1;5599.8;559.98
TMRI_0835_1;300;48.4;49.6;1.2;16574.6;1381.22
TMRI_0835_1;300;46;47.1;1.1;3736.13;339.648
TMRI_0836_1;300;56.2;59.5;3.3;14001;424.274
TMRI_0836_1;300;53;54.6;1.6;8528.6;533.037
TMRI_0836_1;300;48.1;49.1;1;3993.31;399.331
TMRI_0837_1;300;55.8;56.8;1;3775.05;377.505
TMRI_0837_1;300;50.1;52;1.9;9024.89;474.994
TMRI_0839_1;300;48.7;51.3;2.6;28361.9;1090.84
TMRI_0839_1;300;46.6;47.6;1;3346.17;334.617
TMRI_0840_1;300;48.7;52;3.3;15088.9;457.24
TMRI_0840_1;300;46.6;47.6;1;3958.11;395.811
TMRI_0841_1;300;47.3;48.3;1;18189.5;1818.95
TMRI_0844_1;300;51.7;53.6;1.9;7617.18;400.904
TMRI_0844_1;300;47.3;49.9;2.6;24460.7;940.796
TMRI_0845_1;300;50.2;51.8;1.6;13868.9;866.804
TMRI_0845_1;300;47.8;48.8;1;3276.71;327.671
